%YAML 1.1
%TAG !u! tag:unity3d.com,2011:
--- !u!114 &11400000
MonoBehaviour:
  m_ObjectHideFlags: 0
  m_CorrespondingSourceObject: {fileID: 0}
  m_PrefabInstance: {fileID: 0}
  m_PrefabAsset: {fileID: 0}
  m_GameObject: {fileID: 0}
  m_Enabled: 1
  m_EditorHideFlags: 0
  m_Script: {fileID: 11500000, guid: b24777957ec9d44649061dab714daf90, type: 3}
  m_Name: AppParameters
  m_EditorClassIdentifier: 
  m_releaseType: HGF Dev
  m_platformType: Windows
  m_distributionPlatform: Steam
  m_platformArchitecture: Windows x86_64
  m_textureCompression: Default
  m_productName: Happy Geography Fun
  m_bundleIdentifier: com.cirodam.hgf_dev
  m_bundleVersion: 0.0.1
  m_buildNumber: 90
